{
"altezza": "170",
"pesoattuale": "67",
"pesoideale": "60",
"password": "5e884898da28047151d0e56f8dc6292773603d0d6aabbdd62a11ef721d1542d8",

"days":
	[
	 {
	 "name": "Lunedì",
	 "meals":
		[
		 {
		 "name": "Colazione",
		 "meals":
			[
				{
				"name": "Latte di vacca parzial. scremato",
				"quantity": "150",
				"calories": "69",
				"meal": "Colazione"
				},
				{
				"name": "Cornflakes",
				"quantity": "30",
				"calories": "108",
				"meal": "Colazione"
				}
			]
		 },
		 {
		 "name": "Spuntino mattutino",
		 "meals":
			[
				{
				"name": "Pane comune",
				"quantity": "60",
				"calories": "165",
				"meal": "Spuntino mattutino"
				},
				{
				"name": "Prosc.crudo di Parma magro",
				"quantity": "30",
				"calories": "43",
				"meal": "Spuntino mattutino"
				},
				{
				"name": "Te' in tazza",
				"quantity": "60",
				"calories": "0",
				"meal": "Spuntino mattutino"
				}
			]
		 },
		 {
		 "name": "Pranzo",
		 "meals":
			[
				{
				"name": "Pasta di semola",
				"quantity": "80",
				"calories": "282",
				"meal": "Pranzo"
				},
				{
				"name": "Tonno sott'olio - sgocciolato",
				"quantity": "60",
				"calories": "115",
				"meal": "Pranzo"
				},
				{
				"name": "Zucchine",
				"quantity": "100",
				"calories": "11",
				"meal": "Pranzo"
				},
				{
				"name": "Olio di oliva extra vergine",
				"quantity": "5",
				"calories": "44",
				"meal": "Pranzo"
				},
				{
				"name": "Mela",
				"quantity": "150",
				"calories": "79",
				"meal": "Pranzo"
				}
			]
		 },
		 {
		 "name": "Merenda",
		 "meals":
			[
				{
				"name": "Torta al cioccolato",
				"quantity": "30",
				"calories": "94",
				"meal": "Merenda"
				},
				{
				"name": "Cioccolato fondente",
				"quantity": "20",
				"calories": "103",
				"meal": "Merenda"
				},
				{
				"name": "Te' in tazza",
				"quantity": "60",
				"calories": "0",
				"meal": "Merenda"
				}
			]
		 },
		 {
		 "name": "Cena",
		 "meals":
			[
				{
				"name": "Pane integrale",
				"quantity": "50",
				"calories": "112",
				"meal": "Cena"
				},
				{
				"name": "Vitello - filetto",
				"quantity": "110",
				"calories": "117",
				"meal": "Cena"
				},
				{
				"name": "Olio di oliva extra vergine",
				"quantity": "10",
				"calories": "89",
				"meal": "Cena"
				},
				{
				"name": "Carciofi",
				"quantity": "200",
				"calories": "44",
				"meal": "Cena"
				},
				{
				"name": "Olio di oliva extra vergine",
				"quantity": "5",
				"calories": "44",
				"meal": "Cena"
				},
				{
				"name": "Banane",
				"quantity": "100",
				"calories": "65",
				"meal": "Cena"
				}
			]
		}
		]
	},

	{
	"name": "Martedì",
	"meals":
		[
		 {
		 "name": "Colazione",
		 "meals":
			[
				{
				"name": "Latte di vacca parzial. scremato",
				"quantity": "150",
				"calories": "69",
				"meal": "Colazione"
				},
				{
				"name": "Biscotti secchi",
				"quantity": "30",
				"calories": "124",
				"meal": "Colazione"
				}
			]
		 },
		 {
		 "name": "Spuntino mattutino",
		 "meals":
			[
				{
				"name": "Pane comune",
				"quantity": "60",
				"calories": "165",
				"meal": "Spuntino mattutino"
				},
				{
				"name": "Salame ungherese",
				"quantity": "20",
				"calories": "81",
				"meal": "Spuntino mattutino"
				},
				{
				"name": "Te' in tazza",
				"quantity": "60",
				"calories": "0",
				"meal": "Spuntino mattutino"
				}
			]
		 },
		 {
		 "name": "Pranzo",
		 "meals":
			[
				{
				"name": "Riso",
				"quantity": "40",
				"calories": "132",
				"meal": "Pranzo"
				},
				{
				"name": "Minestrone di verdure",
				"quantity": "200",
				"calories": "279",
				"meal": "Pranzo"
				},
				{
				"name": "Lenticchie secche",
				"quantity": "100",
				"calories": "291",
				"meal": "Pranzo"
				},
				{
				"name": "Olio di oliva extra vergine",
				"quantity": "5",
				"calories": "44",
				"meal": "Pranzo"
				},
				{
				"name": "Pera",
				"quantity": "150",
				"calories": "52",
				"meal": "Pranzo"
				}
			]
		 },
		 {
		 "name": "Merenda",
		 "meals":
			[
				{
				"name": "Torta al cioccolato",
				"quantity": "30",
				"calories": "94",
				"meal": "Merenda"
				},
				{
				"name": "Cioccolato fondente",
				"quantity": "20",
				"calories": "103",
				"meal": "Merenda"
				},
				{
				"name": "Te' in tazza",
				"quantity": "60",
				"calories": "0",
				"meal": "Merenda"
				}
			]
		 },
		 {
		 "name": "Cena",
		 "meals":
			[
				{
				"name": "Patate",
				"quantity": "170",
				"calories": "144",
				"meal": "Cena"
				},
				{
				"name": "Spigola",
				"quantity": "150",
				"calories": "123",
				"meal": "Cena"
				},
				{
				"name": "Olio di oliva extra vergine",
				"quantity": "5",
				"calories": "44",
				"meal": "Cena"
				},
				{
				"name": "Pomodori da insalata",
				"quantity": "200",
				"calories": "34",
				"meal": "Cena"
				},
				{
				"name": "Olio di oliva extra vergine",
				"quantity": "5",
				"calories": "44",
				"meal": "Cena"
				},
				{
				"name": "Mela",
				"quantity": "150",
				"calories": "79",
				"meal": "Cena"
				}
			]
		}
		]
	},

	{
	"name": "Mercoledì",
	"meals":
		[
		 {
		 "name": "Colazione",
		 "meals":
			[
				{
				"name": "Latte di vacca parzial. scremato",
				"quantity": "150",
				"calories": "69",
				"meal": "Colazione"
				},
				{
				"name": "Cornflakes",
				"quantity": "30",
				"calories": "108",
				"meal": "Colazione"
				}
			]
		 },
		 {
		 "name": "Spuntino mattutino",
		 "meals":
			[
				{
				"name": "Pane comune",
				"quantity": "60",
				"calories": "165",
				"meal": "Spuntino mattutino"
				},
				{
				"name": "Prosc.crudo di Parma magro",
				"quantity": "30",
				"calories": "43",
				"meal": "Spuntino mattutino"
				},
				{
				"name": "Te' in tazza",
				"quantity": "60",
				"calories": "0",
				"meal": "Spuntino mattutino"
				}
			]
		 },
		 {
		 "name": "Pranzo",
		 "meals":
			[
				{
				"name": "Riso",
				"quantity": "80",
				"calories": "165",
				"meal": "Pranzo"
				},
				{
				"name": "Pomodori pelati",
				"quantity": "250",
				"calories": "52",
				"meal": "Pranzo"
				},
				{
				"name": "Olio di oliva extra vergine",
				"quantity": "10",
				"calories": "89",
				"meal": "Pranzo"
				},
				{
				"name": "Banane",
				"quantity": "100",
				"calories": "65",
				"meal": "Pranzo"
				}
			]
		 },
		 {
		 "name": "Merenda",
		 "meals":
			[
				{
				"name": "Torta al cioccolato",
				"quantity": "30",
				"calories": "94",
				"meal": "Merenda"
				},
				{
				"name": "Cioccolato fondente",
				"quantity": "20",
				"calories": "103",
				"meal": "Merenda"
				},
				{
				"name": "Te' in tazza",
				"quantity": "60",
				"calories": "0",
				"meal": "Merenda"
				}
			]
		 },
		 {
		 "name": "Cena",
		 "meals":
			[
				{
				"name": "Pane integrale",
				"quantity": "40",
				"calories": "80",
				"meal": "Cena"
				},
				{
				"name": "Uova di gallina - intero",
				"quantity": "120",
				"calories": "153",
				"meal": "Cena"
				},
				{
				"name": "Olio di oliva extra vergine",
				"quantity": "10",
				"calories": "89",
				"meal": "Cena"
				},
				{
				"name": "Carciofi",
				"quantity": "200",
				"calories": "44",
				"meal": "Cena"
				},
				{
				"name": "Olio di oliva extra vergine",
				"quantity": "5",
				"calories": "44",
				"meal": "Cena"
				},
				{
				"name": "Mela",
				"quantity": "150",
				"calories": "79",
				"meal": "Cena"
				}
			]
		}
		]
	},

	{
	"name": "Giovedì",
	"meals":
		[
		 {
		 "name": "Colazione",
		 "meals":
			[
				{
				"name": "Latte di vacca parzial. scremato",
				"quantity": "150",
				"calories": "69",
				"meal": "Colazione"
				},
				{
				"name": "Biscotti secchi",
				"quantity": "30",
				"calories": "124",
				"meal": "Colazione"
				}
			]
		 },
		 {
		 "name": "Spuntino mattutino",
		 "meals":
			[
				{
				"name": "Pane comune",
				"quantity": "60",
				"calories": "165",
				"meal": "Spuntino mattutino"
				},
				{
				"name": "Salame ungherese",
				"quantity": "20",
				"calories": "81",
				"meal": "Spuntino mattutino"
				},
				{
				"name": "Te' in tazza",
				"quantity": "60",
				"calories": "0",
				"meal": "Spuntino mattutino"
				}
			]
		 },
		 {
		 "name": "Pranzo",
		 "meals":
			[
				{
				"name": "Pasta di semola integrale",
				"quantity": "80",
				"calories": "259",
				"meal": "Pranzo"
				},
				{
				"name": "Ricotta di vacca",
				"quantity": "70",
				"calories": "102",
				"meal": "Pranzo"
				},
				{
				"name": "Pomodori pelati",
				"quantity": "250",
				"calories": "52",
				"meal": "Pranzo"
				},
				{
				"name": "Olio di oliva extra vergine",
				"quantity": "5",
				"calories": "44",
				"meal": "Pranzo"
				},
				{
				"name": "Mela",
				"quantity": "150",
				"calories": "79",
				"meal": "Pranzo"
				}
			]
		 },
		 {
		 "name": "Merenda",
		 "meals":
			[
				{
				"name": "Torta al cioccolato",
				"quantity": "30",
				"calories": "94",
				"meal": "Merenda"
				},
				{
				"name": "Cioccolato fondente",
				"quantity": "20",
				"calories": "103",
				"meal": "Merenda"
				},
				{
				"name": "Te' in tazza",
				"quantity": "60",
				"calories": "0",
				"meal": "Merenda"
				}
			]
		 },
		 {
		 "name": "Cena",
		 "meals":
			[
				{
				"name": "Pane integrale",
				"quantity": "40",
				"calories": "89",
				"meal": "Cena"
				},
				{
				"name": "Pollo - petto",
				"quantity": "90",
				"calories": "90",
				"meal": "Cena"
				},
				{
				"name": "Caciottina vaccina",
				"quantity": "40",
				"calories": "129",
				"meal": "Cena"
				},
				{
				"name": "Olio di oliva extra vergine",
				"quantity": "5",
				"calories": "44",
				"meal": "Cena"
				},
				{
				"name": "Mela",
				"quantity": "150",
				"calories": "79",
				"meal": "Cena"
				}
			]
		}
		]
	},

	{
	"name": "Venerdì",
	"meals":
		[
		 {
		 "name": "Colazione",
		 "meals":
			[
				{
				"name": "Latte di vacca parzial. scremato",
				"quantity": "150",
				"calories": "69",
				"meal": "Colazione"
				},
				{
				"name": "Cornflakes",
				"quantity": "30",
				"calories": "108",
				"meal": "Colazione"
				}
			]
		 },
		 {
		 "name": "Spuntino mattutino",
		 "meals":
			[
				{
				"name": "Pane comune",
				"quantity": "60",
				"calories": "165",
				"meal": "Spuntino mattutino"
				},
				{
				"name": "Prosc.crudo di Parma magro",
				"quantity": "30",
				"calories": "43",
				"meal": "Spuntino mattutino"
				},
				{
				"name": "Te' in tazza",
				"quantity": "60",
				"calories": "0",
				"meal": "Spuntino mattutino"
				}
			]
		 },
		 {
		 "name": "Pranzo",
		 "meals":
			[
				{
				"name": "Pasta di semola",
				"quantity": "40",
				"calories": "141",
				"meal": "Pranzo"
				},
				{
				"name": "Fagioli - Borlotti freschi",
				"quantity": "110",
				"calories": "146",
				"meal": "Pranzo"
				},
				{
				"name": "Olio di oliva extra vergine",
				"quantity": "10",
				"calories": "89",
				"meal": "Pranzo"
				},
				{
				"name": "Carciofi",
				"quantity": "200",
				"calories": "44",
				"meal": "Pranzo"
				},
				{
				"name": "Olio di oliva extra vergine",
				"quantity": "5",
				"calories": "44",
				"meal": "Pranzo"
				},
				{
				"name": "Pera",
				"quantity": "150",
				"calories": "52",
				"meal": "Pranzo"
				}
			]
		 },
		 {
		 "name": "Merenda",
		 "meals":
			[
				{
				"name": "Torta al cioccolato",
				"quantity": "30",
				"calories": "94",
				"meal": "Merenda"
				},
				{
				"name": "Cioccolato fondente",
				"quantity": "20",
				"calories": "103",
				"meal": "Merenda"
				},
				{
				"name": "Te' in tazza",
				"quantity": "60",
				"calories": "0",
				"meal": "Merenda"
				}
			]
		 },
		 {
		 "name": "Cena",
		 "meals":
			[
				{
				"name": "Hamburger",
				"quantity": "200",
				"calories": "484",
				"meal": "Cena"
				},
				{
				"name": "Olio di oliva extra vergine",
				"quantity": "10",
				"calories": "89",
				"meal": "Cena"
				},
				{
				"name": "Carote",
				"quantity": "50",
				"calories": "17",
				"meal": "Cena"
				},
				{
				"name": "Olio di oliva extra vergine",
				"quantity": "5",
				"calories": "44",
				"meal": "Cena"
				},
				{
				"name": "Pera",
				"quantity": "250",
				"calories": "87",
				"meal": "Cena"
				}
			]
		}
		]
	},

	{
	"name": "Sabato",
	"meals":
		[
		 {
		 "name": "Colazione",
		 "meals":
			[
				{
				"name": "Latte di vacca parzial. scremato",
				"quantity": "150",
				"calories": "69",
				"meal": "Colazione"
				},
				{
				"name": "Biscotti secchi",
				"quantity": "30",
				"calories": "124",
				"meal": "Colazione"
				}
			]
		 },
		 {
		 "name": "Spuntino mattutino",
		 "meals":
			[
				{
				"name": "Pane comune",
				"quantity": "60",
				"calories": "165",
				"meal": "Spuntino mattutino"
				},
				{
				"name": "Prosc.crudo di Parma magro",
				"quantity": "30",
				"calories": "43",
				"meal": "Spuntino mattutino"
				}
			]
		 },
		 {
		 "name": "Pranzo",
		 "meals":
			[
				{
				"name": "Pasta di semola",
				"quantity": "70",
				"calories": "247",
				"meal": "Pranzo"
				},
				{
				"name": "Vongola",
				"quantity": "150",
				"calories": "108",
				"meal": "Pranzo"
				},
				{
				"name": "Olio di oliva extra vergine",
				"quantity": "10",
				"calories": "89",
				"meal": "Pranzo"
				},
				{
				"name": "Banane",
				"quantity": "100",
				"calories": "65",
				"meal": "Pranzo"
				}
			]
		 },
		 {
		 "name": "Merenda",
		 "meals":
			[
				{
				"name": "Torta al cioccolato",
				"quantity": "30",
				"calories": "94",
				"meal": "Merenda"
				},
				{
				"name": "Cioccolato fondente",
				"quantity": "20",
				"calories": "103",
				"meal": "Merenda"
				},
				{
				"name": "Te' in tazza",
				"quantity": "60",
				"calories": "0",
				"meal": "Merenda"
				}
			]
		 },
		 {
		 "name": "Cena",
		 "meals":
			[
				{
				"name": "Pizza pomodoro e mozzarella",
				"quantity": "350",
				"calories": "948",
				"meal": "Cena"
				},
				{
				"name": "Mela",
				"quantity": "150",
				"calories": "79",
				"meal": "Cena"
				}
			]
		}
		]
	},

	{
	"name": "Domenica",
	"meals":
		[
		 {
		 "name": "Colazione",
		 "meals":
			[
				{
				"name": "Croissants",
				"quantity": "80",
				"calories": "286",
				"meal": "Colazione"
				},
				{
				"name": "Uova di gallina - intero",
				"quantity": "60",
				"calories": "76",
				"meal": "Colazione"
				},
				{
				"name": "Te' in tazza",
				"quantity": "60",
				"calories": "0",
				"meal": "Colazione"
				}
			]
		 },
		 {
		 "name": "Spuntino mattutino",
		 "meals":
			[
			]
		 },
		 {
		 "name": "Pranzo",
		 "meals":
			[
				{
				"name": "Ravioli di ricotta",
				"quantity": "100",
				"calories": "217",
				"meal": "Pranzo"
				},
				{
				"name": "Pomodori pelati",
				"quantity": "250",
				"calories": "52",
				"meal": "Pranzo"
				},
				{
				"name": "Olio di oliva extra vergine",
				"quantity": "10",
				"calories": "89",
				"meal": "Pranzo"
				},
				{
				"name": "Mela",
				"quantity": "150",
				"calories": "79",
				"meal": "Pranzo"
				}
			]
		 },
		 {
		 "name": "Merenda",
		 "meals":
			[
				{
				"name": "Torta al cioccolato",
				"quantity": "30",
				"calories": "94",
				"meal": "Merenda"
				},
				{
				"name": "Cioccolato fondente",
				"quantity": "20",
				"calories": "103",
				"meal": "Merenda"
				},
				{
				"name": "Te' in tazza",
				"quantity": "60",
				"calories": "0",
				"meal": "Merenda"
				}
			]
		 },
		 {
		 "name": "Cena",
		 "meals":
			[
				{
				"name": "Pasta di semola",
				"quantity": "40",
				"calories": "141",
				"meal": "Cena"
				},
				{
				"name": "Lenticchie secche",
				"quantity": "30",
				"calories": "87",
				"meal": "Cena"
				},
				{
				"name": "Olio di oliva extra vergine",
				"quantity": "10",
				"calories": "89",
				"meal": "Cena"
				},
				{
				"name": "Mela",
				"quantity": "150",
				"calories": "79",
				"meal": "Cena"
				}
			]
		}
		]
	}
	]
}